…
``` r
## We first load the required libraries to run this script
library(OmnipathR)
library(dplyr)
library(VennDiagram)
library(readr)
```

``` r
## We read the data which are freely available via Zenodo and we display
## how they look like. 
lr_Network_Nichenet <- 
    readRDS(url("https://zenodo.org/record/3260758/files/lr_network.rds"))  
lr_Network_Nichenet
## # A tibble: 12,651 x 4
##    from  to    source         database
##    <chr> <chr> <chr>          <chr>   
##  1 CXCL1 CXCR2 kegg_cytokines kegg    
##  2 CXCL2 CXCR2 kegg_cytokines kegg    
##  3 CXCL3 CXCR2 kegg_cytokines kegg    
##  4 CXCL5 CXCR2 kegg_cytokines kegg    
##  5 PPBP  CXCR2 kegg_cytokines kegg    
##  6 CXCL6 CXCR2 kegg_cytokines kegg    
##  7 CXCL8 CXCR2 kegg_cytokines kegg    
##  8 CXCL6 CXCR1 kegg_cytokines kegg    
##  9 CXCL8 CXCR1 kegg_cytokines kegg    
## 10 CXCL9 CXCR3 kegg_cytokines kegg    
## # … with 12,641 more rows
```
…
## Signaling Network

In this section, we compare the singaling network used to build
**NicheNet** with the one available through **Omnipath**. We first load
the signaling interactions used to build the **NicheNet** model.

``` r
## We read the data which are freely available via Zenodo and we display
## how they look like. 
sig_Network_Nichenet <- 
    readRDS(url("https://zenodo.org/record/3260758/files/signaling_network.rds"))
sig_Network_Nichenet
## # A tibble: 3,621,987 x 4
##    from    to    source                                   database              
##    <chr>   <chr> <chr>                                    <chr>                 
##  1 BTRC    PDCD4 omnipath_directional                     omnipath              
##  2 RPS6KB1 PDCD4 omnipath_directional                     omnipath              
##  3 RPS6KB1 PDCD4 pathwaycommons_controls_phosphorylation… pathwaycommons_signal…
##  4 RPS6KB1 PDCD4 pathwaycommons_controls_state_change_of  pathwaycommons_signal…
##  5 RPS6KB1 PDCD4 harmonizome_KEA                          harmonizome           
##  6 RPS6KB1 PDCD4 harmonizome_PhosphoSite                  harmonizome           
##  7 AKT1    PDCD4 omnipath_directional                     omnipath              
##  8 AKT1    PDCD4 pathwaycommons_controls_phosphorylation… pathwaycommons_signal…
##  9 AKT1    PDCD4 pathwaycommons_controls_state_change_of  pathwaycommons_signal…
## 10 AKT1    PDCD4 harmonizome_KEA                          harmonizome           
## # … with 3,621,977 more rows
```
…
## Gene Regulatory Network

In this section, we compare the GRN network used to build **NicheNet**
with the **DoRothEA** regulons available through **Omnipath**. We first
load the GNR interactions used to build the **NicheNet** model.

``` r
## We read the data which are freely available via Zenodo and we display
## how they look like. 
gr_Network_Nichenet <-
    readRDS(url("https://zenodo.org/record/3260758/files/gr_network.rds"))
gr_Network_Nichenet
## # A tibble: 3,592,299 x 4
##    from  to      source           database      
##    <chr> <chr>   <chr>            <chr>         
##  1 KLF2  DLGAP1  harmonizome_CHEA harmonizome_gr
##  2 KLF2  DTNB    harmonizome_CHEA harmonizome_gr
##  3 KLF2  BHLHE40 harmonizome_CHEA harmonizome_gr
##  4 KLF2  RPS6KA1 harmonizome_CHEA harmonizome_gr
##  5 KLF2  PXN     harmonizome_CHEA harmonizome_gr
##  6 KLF2  UBE2V1  harmonizome_CHEA harmonizome_gr
##  7 KLF2  MSRA    harmonizome_CHEA harmonizome_gr
##  8 KLF2  TEX14   harmonizome_CHEA harmonizome_gr
##  9 KLF2  CYLD    harmonizome_CHEA harmonizome_gr
## 10 KLF2  RYBP    harmonizome_CHEA harmonizome_gr
## # … with 3,592,289 more rows
```
…
