…
``` r
ligand_activities <- predict_ligand_activities(
    geneset = geneset_oi, 
    background_expressed_genes = background_expressed_genes, 
    ligand_target_matrix = ligand_target_matrix, 
    potential_ligands = potential_ligands)
```

We will rank the ligands based on their pearson correlation coefficient.
This allows us to prioritize inflamory response-regulating ligands.

``` r
ligand_activities %>% arrange(-pearson) 
## # A tibble: 89 x 4
##    test_ligand auroc   aupr pearson
##    <chr>       <dbl>  <dbl>   <dbl>
##  1 IL23A       0.742 0.0693   0.173
##  2 TNF         0.753 0.0604   0.165
##  3 TNFSF13B    0.732 0.0568   0.159
##  4 IL1A        0.712 0.0532   0.155
##  5 LAMA2       0.740 0.0597   0.152
##  6 ICAM4       0.731 0.0645   0.151
##  7 L1CAM       0.735 0.0645   0.151
##  8 CXCL9       0.742 0.0771   0.151
##  9 NPPB        0.724 0.0721   0.151
## 10 INHBA       0.677 0.0591   0.150
## # … with 79 more rows
…
