…
Now, we want to rank the ligands based on their ligand activity. In our
validation study, we showed that the pearson correlation between a
ligand’s target predictions and the observed transcriptional response
was the most informative measure to define ligand activity. Therefore,
we will rank the ligands based on their pearson correlation coefficient.

``` r
ligand_activities %>% 
    arrange(-pearson)
## # A tibble: 89 x 4
##    test_ligand auroc   aupr pearson
##    <chr>       <dbl>  <dbl>   <dbl>
##  1 IL23A       0.742 0.0693   0.173
##  2 TNF         0.753 0.0604   0.165
##  3 TNFSF13B    0.732 0.0568   0.159
##  4 IL1A        0.712 0.0532   0.155
##  5 LAMA2       0.740 0.0597   0.152
##  6 ICAM4       0.731 0.0645   0.151
##  7 L1CAM       0.735 0.0645   0.151
##  8 CXCL9       0.742 0.0771   0.151
##  9 NPPB        0.724 0.0721   0.151
## 10 INHBA       0.677 0.0591   0.150
## # … with 79 more rows
…
target_prediction_performances_discrete_fisher %>% unlist() %>% mean()
## [1] 3.250723e-08
```

Finally, we will look at which genes are well-predicted in every
cross-validation round.

``` r
# get top predicted genes
top_predicted_genes <- seq(length(inflammation_gene_predictions_top12_list)) %>%                 
    lapply(get_top_predicted_genes,inflammation_gene_predictions_top12_list) %>% 
    purrr::reduce(full_join, by = c("gene","true_target"))
top_predicted_genes %>% filter(true_target)
## # A tibble: 27 x 12
##    gene  true_target predicted_top_t… predicted_top_t… predicted_top_t…
##    <chr> <lgl>       <lgl>            <lgl>            <lgl>           
##  1 NFKB… TRUE        TRUE             TRUE             TRUE            
##  2 SELE  TRUE        TRUE             TRUE             TRUE            
##  3 IRF1  TRUE        TRUE             TRUE             TRUE            
##  4 NFKB1 TRUE        TRUE             TRUE             TRUE            
##  5 EIF2… TRUE        TRUE             TRUE             TRUE            
##  6 MYC   TRUE        TRUE             TRUE             TRUE            
##  7 RIPK2 TRUE        TRUE             TRUE             NA              
##  8 LYN   TRUE        TRUE             NA               TRUE            
##  9 CDKN… TRUE        TRUE             TRUE             TRUE            
## 10 PTAFR TRUE        TRUE             TRUE             TRUE            
## # … with 17 more rows, and 7 more variables: predicted_top_target_round4 <lgl>,
## #   predicted_top_target_round5 <lgl>, predicted_top_target_round6 <lgl>,
## #   predicted_top_target_round7 <lgl>, predicted_top_target_round8 <lgl>,
## #   predicted_top_target_round9 <lgl>, predicted_top_target_round10 <lgl>
```
…
